{
  "news": {
    "attributes": {
      "title": {
        "appearance": ""
      },
      "detail": {
        "appearance": "WYSIWYG"
      },
      "created_at": {
        "appearance": ""
      }
    }
  },
  "author": {
    "attributes": {
      "name": {
        "appearance": ""
      },
      "surname": {
        "appearance": ""
      }
    }
  }
}